Data Manipulation and Summarization
…
* The key to getting summaries within categories is the `group_by()` function. 
* You can group by multiple categorical variables, too!
* Just list those variable names (VERBATIM) after the name of your data, separated by commas

```r
#Step one: group your data
grouped <- group_by(diamonds, cut, color)

#Step two: summarise the grouped *diamonds* data
price_means <- summarise(grouped, mean_price = mean(price, na.rm=TRUE))
price_means
```

```
## # A tibble: 35 × 3
## # Groups:   cut [5]
##    cut   color mean_price
##    <ord> <ord>      <dbl>
##  1 Fair  D          4291.
##  2 Fair  E          3682.
##  3 Fair  F          3827.
##  4 Fair  G          4239.
##  5 Fair  H          5136.
##  6 Fair  I          4685.
##  7 Fair  J          4976.
##  8 Good  D          3405.
##  9 Good  E          3424.
## 10 Good  F          3496.
## # … with 25 more rows
```
…
